Billy bootstrap non-linear models with purrr and modelr | Daniel Padfield
…
fit_boots <- d_examp %>% 
  modelr::bootstrap(n = 200, id = 'boot_num') %>%
  group_by(boot_num) %>%
  mutate(fit = map(strap, ~nls_multstart(ln.rate ~ schoolfield_high(lnc, E, Eh, Th, temp = K, Tc = 20),
                        data = data.frame(.),
                        iter = 100,
                        param_bds = c(-10, 10, 0.1, 2, 0.5, 5, 285, 330),
                        lower = c(lnc=-10, E=0, Eh=0, Th=0),
                        upper = c(lnc = 5, E = 10, Eh = 30, Th = 350),
                        supp_errors = 'Y')
  ))

fit_boots

## # A tibble: 200 x 3
## # Groups: boot_num [200]
##    strap          boot_num fit      
##    <list>         <chr>    <list>   
##  1 <S3: resample> 001      <S3: nls>
##  2 <S3: resample> 002      <S3: nls>
##  3 <S3: resample> 003      <S3: nls>
##  4 <S3: resample> 004      <S3: nls>
##  5 <S3: resample> 005      <S3: nls>
##  6 <S3: resample> 006      <S3: nls>
##  7 <S3: resample> 007      <S3: nls>
##  8 <S3: resample> 008      <S3: nls>
##  9 <S3: resample> 009      <S3: nls>
## 10 <S3: resample> 010      <S3: nls>
## # ... with 190 more rows
…
