Fitting non-linear regressions with broom, purrr and nls.multstart | Daniel Padfield
…
# look at output object
select(fits, curve_id, data, fit)

## # A tibble: 60 x 3
##    curve_id data              fit      
##       <dbl> <list>            <list>   
##  1     1.00 <tibble [12 × 3]> <S3: nls>
##  2     2.00 <tibble [12 × 3]> <S3: nls>
##  3     3.00 <tibble [12 × 3]> <S3: nls>
##  4     4.00 <tibble [9 × 3]>  <S3: nls>
##  5     5.00 <tibble [12 × 3]> <S3: nls>
##  6     6.00 <tibble [12 × 3]> <S3: nls>
##  7     7.00 <tibble [12 × 3]> <S3: nls>
##  8     8.00 <tibble [10 × 3]> <S3: nls>
##  9     9.00 <tibble [8 × 3]>  <S3: nls>
## 10    10.0  <tibble [10 × 3]> <S3: nls>
## # ... with 50 more rows
…
# merge parameters and CI estimates
params <- merge(params, CI, by = intersect(names(params), names(CI)))

# get predictions
preds <- fits %>%
  unnest(fit %>% map(augment))

Looking at info allows us to see if all the models converged.

select(info, curve_id, logLik, AIC, BIC, deviance, df.residual)

## # A tibble: 60 x 6
##    curve_id  logLik   AIC   BIC deviance df.residual
##       <dbl>   <dbl> <dbl> <dbl>    <dbl>       <int>
##  1     1.00 -14.0   38.0  40.4     7.26            8
##  2     2.00 - 1.20  12.4  14.8     0.858           8
##  3     3.00 - 7.39  24.8  27.2     2.41            8
##  4     4.00 - 0.523 11.0  12.0     0.592           5
##  5     5.00 -10.8   31.7  34.1     4.29            8
##  6     6.00 - 8.52  27.0  29.5     2.91            8
##  7     7.00 - 1.29  12.6  15.0     0.871           8
##  8     8.00 -13.4   36.7  38.2     8.48            6
##  9     9.00   1.82   6.36  6.76    0.297           4
## 10    10.0  - 1.27  12.5  14.1     0.755           6
## # ... with 50 more rows
…
